%YAML 1.1
%TAG !u! tag:unity3d.com,2011:
--- !u!74 &7400000
AnimationClip:
  m_ObjectHideFlags: 0
  m_CorrespondingSourceObject: {fileID: 0}
  m_PrefabInstance: {fileID: 0}
  m_PrefabAsset: {fileID: 0}
  m_Name: Death
  serializedVersion: 6
  m_Legacy: 0
  m_Compressed: 0
  m_UseHighQualityCurve: 1
  m_RotationCurves: []
  m_CompressedRotationCurves: []
  m_EulerCurves: []
  m_PositionCurves: []
  m_ScaleCurves: []
  m_FloatCurves: []
  m_PPtrCurves:
  - curve:
    - time: 0
      value: {fileID: 21300000, guid: fa9699cfb5ac99d4facbde711d07d1f7, type: 3}
    - time: 0.083333336
      value: {fileID: 21300000, guid: 42270e817bcefdf43a0a5291beb68622, type: 3}
    - time: 0.16666667
      value: {fileID: 21300000, guid: 8db527c073c801b419e5696337d34b06, type: 3}
    - time: 0.25
      value: {fileID: 21300000, guid: ad85fbde723e20145baac7c65c88f991, type: 3}
    - time: 0.33333334
      value: {fileID: 21300000, guid: dc9861d99b1cc0046bf75190ab4d84a6, type: 3}
    - time: 0.41666666
      value: {fileID: 21300000, guid: 6db78ef8f50aef04faefd45ee7d30dc3, type: 3}
    - time: 0.5
      value: {fileID: 21300000, guid: 403a99b062dde3e4888ab5a4b38c2e0e, type: 3}
    - time: 0.5833333
      value: {fileID: 21300000, guid: 0dd5f800d52bf5c44ada25a745da75ca, type: 3}
    - time: 0.6666667
      value: {fileID: 21300000, guid: cece8469468e99e4aa93068d94e38aff, type: 3}
    - time: 0.75
      value: {fileID: 21300000, guid: d190460b47994544685ed016bc8aa12e, type: 3}
    - time: 0.8333333
      value: {fileID: 21300000, guid: 480b496a078ee654aafa991e3fbbe3ad, type: 3}
    - time: 0.9166667
      value: {fileID: 21300000, guid: a610a7a91c5ce6443957f47f958d2505, type: 3}
    - time: 1
      value: {fileID: 21300000, guid: d5138e1f635e63a4987928c8ce802a15, type: 3}
    - time: 1.0833334
      value: {fileID: 21300000, guid: 16c3d3d4f371498469671eba2b5e5156, type: 3}
    - time: 1.1666666
      value: {fileID: 21300000, guid: 4093362d8cfa72840b545466684422ca, type: 3}
    - time: 1.25
      value: {fileID: 21300000, guid: 547fa44044c24614aa2f8c53292c5f7b, type: 3}
    - time: 1.3333334
      value: {fileID: 21300000, guid: 596318cfd3d8bf0499fe03d15f430ff8, type: 3}
    - time: 1.4166666
      value: {fileID: 21300000, guid: d73c31c928a66864d8fd3741bc4d0405, type: 3}
    - time: 1.5
      value: {fileID: 21300000, guid: 8afb2aa18eab1de4a81034ff42a7b574, type: 3}
    - time: 1.5833334
      value: {fileID: 21300000, guid: 19aa3d46569f7d34b9e0780f8f3f6ac3, type: 3}
    - time: 1.6666666
      value: {fileID: 21300000, guid: 3ad7d9535b89ac04dbcb8889fc925905, type: 3}
    - time: 1.75
      value: {fileID: 21300000, guid: 1d4ad5886cd612c4bacb7895caff6409, type: 3}
    - time: 1.8333334
      value: {fileID: 21300000, guid: 96046b878dc32a64a969fc64646ec22b, type: 3}
    - time: 1.9166666
      value: {fileID: 21300000, guid: fa36fec01c3b61441b1778cb547f6bec, type: 3}
    attribute: m_Sprite
    path: 
    classID: 212
    script: {fileID: 0}
  m_SampleRate: 12
  m_WrapMode: 0
  m_Bounds:
    m_Center: {x: 0, y: 0, z: 0}
    m_Extent: {x: 0, y: 0, z: 0}
  m_ClipBindingConstant:
    genericBindings:
    - serializedVersion: 2
      path: 0
      attribute: 0
      script: {fileID: 0}
      typeID: 212
      customType: 23
      isPPtrCurve: 1
    pptrCurveMapping:
    - {fileID: 21300000, guid: fa9699cfb5ac99d4facbde711d07d1f7, type: 3}
    - {fileID: 21300000, guid: 42270e817bcefdf43a0a5291beb68622, type: 3}
    - {fileID: 21300000, guid: 8db527c073c801b419e5696337d34b06, type: 3}
    - {fileID: 21300000, guid: ad85fbde723e20145baac7c65c88f991, type: 3}
    - {fileID: 21300000, guid: dc9861d99b1cc0046bf75190ab4d84a6, type: 3}
    - {fileID: 21300000, guid: 6db78ef8f50aef04faefd45ee7d30dc3, type: 3}
    - {fileID: 21300000, guid: 403a99b062dde3e4888ab5a4b38c2e0e, type: 3}
    - {fileID: 21300000, guid: 0dd5f800d52bf5c44ada25a745da75ca, type: 3}
    - {fileID: 21300000, guid: cece8469468e99e4aa93068d94e38aff, type: 3}
    - {fileID: 21300000, guid: d190460b47994544685ed016bc8aa12e, type: 3}
    - {fileID: 21300000, guid: 480b496a078ee654aafa991e3fbbe3ad, type: 3}
    - {fileID: 21300000, guid: a610a7a91c5ce6443957f47f958d2505, type: 3}
    - {fileID: 21300000, guid: d5138e1f635e63a4987928c8ce802a15, type: 3}
    - {fileID: 21300000, guid: 16c3d3d4f371498469671eba2b5e5156, type: 3}
    - {fileID: 21300000, guid: 4093362d8cfa72840b545466684422ca, type: 3}
    - {fileID: 21300000, guid: 547fa44044c24614aa2f8c53292c5f7b, type: 3}
    - {fileID: 21300000, guid: 596318cfd3d8bf0499fe03d15f430ff8, type: 3}
    - {fileID: 21300000, guid: d73c31c928a66864d8fd3741bc4d0405, type: 3}
    - {fileID: 21300000, guid: 8afb2aa18eab1de4a81034ff42a7b574, type: 3}
    - {fileID: 21300000, guid: 19aa3d46569f7d34b9e0780f8f3f6ac3, type: 3}
    - {fileID: 21300000, guid: 3ad7d9535b89ac04dbcb8889fc925905, type: 3}
    - {fileID: 21300000, guid: 1d4ad5886cd612c4bacb7895caff6409, type: 3}
    - {fileID: 21300000, guid: 96046b878dc32a64a969fc64646ec22b, type: 3}
    - {fileID: 21300000, guid: fa36fec01c3b61441b1778cb547f6bec, type: 3}
  m_AnimationClipSettings:
    serializedVersion: 2
    m_AdditiveReferencePoseClip: {fileID: 0}
    m_AdditiveReferencePoseTime: 0
    m_StartTime: 0
    m_StopTime: 2
    m_OrientationOffsetY: 0
    m_Level: 0
    m_CycleOffset: 0
    m_HasAdditiveReferencePose: 0
    m_LoopTime: 1
    m_LoopBlend: 0
    m_LoopBlendOrientation: 0
    m_LoopBlendPositionY: 0
    m_LoopBlendPositionXZ: 0
    m_KeepOriginalOrientation: 0
    m_KeepOriginalPositionY: 1
    m_KeepOriginalPositionXZ: 0
    m_HeightFromFeet: 0
    m_Mirror: 0
  m_EditorCurves: []
  m_EulerEditorCurves: []
  m_HasGenericRootTransform: 0
  m_HasMotionFloatCurves: 0
  m_Events: []
