%YAML 1.1
%TAG !u! tag:unity3d.com,2011:
--- !u!74 &7400000
AnimationClip:
  m_ObjectHideFlags: 0
  m_CorrespondingSourceObject: {fileID: 0}
  m_PrefabInstance: {fileID: 0}
  m_PrefabAsset: {fileID: 0}
  m_Name: AcornStartFlying
  serializedVersion: 6
  m_Legacy: 0
  m_Compressed: 0
  m_UseHighQualityCurve: 1
  m_RotationCurves: []
  m_CompressedRotationCurves: []
  m_EulerCurves: []
  m_PositionCurves: []
  m_ScaleCurves: []
  m_FloatCurves: []
  m_PPtrCurves:
  - curve:
    - time: 0
      value: {fileID: 21300000, guid: 77bf6c84854fbfb40bbe380fb4358649, type: 3}
    - time: 0.083333336
      value: {fileID: 21300000, guid: b14e9e976e3cda548b28f67804adbeee, type: 3}
    - time: 0.16666667
      value: {fileID: 21300000, guid: 3ac2377843c8d5447a1e55fcbccdb705, type: 3}
    - time: 0.25
      value: {fileID: 21300000, guid: b6259024366a232418f86b1467133098, type: 3}
    - time: 0.33333334
      value: {fileID: 21300000, guid: 6a4cd58ecd5471d4c97d24d385752abf, type: 3}
    - time: 0.41666666
      value: {fileID: 21300000, guid: e052d20397511a948836c47461b5cdc7, type: 3}
    - time: 0.5
      value: {fileID: 21300000, guid: 1464461d2456978418dc060ff375e61d, type: 3}
    - time: 0.5833333
      value: {fileID: 21300000, guid: 1bdbc129f3b80f74595d58632c949ff6, type: 3}
    attribute: m_Sprite
    path: 
    classID: 212
    script: {fileID: 0}
  m_SampleRate: 12
  m_WrapMode: 0
  m_Bounds:
    m_Center: {x: 0, y: 0, z: 0}
    m_Extent: {x: 0, y: 0, z: 0}
  m_ClipBindingConstant:
    genericBindings:
    - serializedVersion: 2
      path: 0
      attribute: 0
      script: {fileID: 0}
      typeID: 212
      customType: 23
      isPPtrCurve: 1
    pptrCurveMapping:
    - {fileID: 21300000, guid: 77bf6c84854fbfb40bbe380fb4358649, type: 3}
    - {fileID: 21300000, guid: b14e9e976e3cda548b28f67804adbeee, type: 3}
    - {fileID: 21300000, guid: 3ac2377843c8d5447a1e55fcbccdb705, type: 3}
    - {fileID: 21300000, guid: b6259024366a232418f86b1467133098, type: 3}
    - {fileID: 21300000, guid: 6a4cd58ecd5471d4c97d24d385752abf, type: 3}
    - {fileID: 21300000, guid: e052d20397511a948836c47461b5cdc7, type: 3}
    - {fileID: 21300000, guid: 1464461d2456978418dc060ff375e61d, type: 3}
    - {fileID: 21300000, guid: 1bdbc129f3b80f74595d58632c949ff6, type: 3}
  m_AnimationClipSettings:
    serializedVersion: 2
    m_AdditiveReferencePoseClip: {fileID: 0}
    m_AdditiveReferencePoseTime: 0
    m_StartTime: 0
    m_StopTime: 0.6666666
    m_OrientationOffsetY: 0
    m_Level: 0
    m_CycleOffset: 0
    m_HasAdditiveReferencePose: 0
    m_LoopTime: 1
    m_LoopBlend: 0
    m_LoopBlendOrientation: 0
    m_LoopBlendPositionY: 0
    m_LoopBlendPositionXZ: 0
    m_KeepOriginalOrientation: 0
    m_KeepOriginalPositionY: 1
    m_KeepOriginalPositionXZ: 0
    m_HeightFromFeet: 0
    m_Mirror: 0
  m_EditorCurves: []
  m_EulerEditorCurves: []
  m_HasGenericRootTransform: 0
  m_HasMotionFloatCurves: 0
  m_Events: []
