%YAML 1.1
%TAG !u! tag:unity3d.com,2011:
--- !u!221 &22100000
AnimatorOverrideController:
  m_ObjectHideFlags: 0
  m_CorrespondingSourceObject: {fileID: 0}
  m_PrefabInstance: {fileID: 0}
  m_PrefabAsset: {fileID: 0}
  m_Name: FallingSeedParryController
  m_Controller: {fileID: 9100000, guid: e81136c9eb1cb75439a896a2f602db09, type: 2}
  m_Clips:
  - m_OriginalClip: {fileID: 7400000, guid: 880895436c8a52943a30daf6fafbdd3e, type: 2}
    m_OverrideClip: {fileID: 7400000, guid: e22e5927a5f5d724b8c077b95105094c, type: 2}
  - m_OriginalClip: {fileID: 7400000, guid: 51cb8f4b1e16ea2489c67b03491197a4, type: 2}
    m_OverrideClip: {fileID: 7400000, guid: 189930f897d4fee4f9436ad8923ffe61, type: 2}
