%YAML 1.1
%TAG !u! tag:unity3d.com,2011:
--- !u!74 &7400000
AnimationClip:
  m_ObjectHideFlags: 0
  m_CorrespondingSourceObject: {fileID: 0}
  m_PrefabInstance: {fileID: 0}
  m_PrefabAsset: {fileID: 0}
  m_Name: Seed_Burrow_Parry
  serializedVersion: 6
  m_Legacy: 0
  m_Compressed: 0
  m_UseHighQualityCurve: 1
  m_RotationCurves: []
  m_CompressedRotationCurves: []
  m_EulerCurves: []
  m_PositionCurves: []
  m_ScaleCurves: []
  m_FloatCurves: []
  m_PPtrCurves:
  - curve:
    - time: 0
      value: {fileID: 21300000, guid: 6a4acee4f96bf3a45b011221a46b1c86, type: 3}
    - time: 0.083333336
      value: {fileID: 21300000, guid: 8ea08a1d6c8fce746bad807600d5accd, type: 3}
    - time: 0.16666667
      value: {fileID: 21300000, guid: 9ad5cdf8f8293d6428b1075d2a3f99b7, type: 3}
    - time: 0.25
      value: {fileID: 21300000, guid: 22db84646bbc1af4588f15c4f424146b, type: 3}
    - time: 0.33333334
      value: {fileID: 21300000, guid: 5feb139c740f41f448c9f9a5ae76cc02, type: 3}
    - time: 0.41666666
      value: {fileID: 21300000, guid: 80827b1b4a3ddd34f9082c8d4b4e44ee, type: 3}
    - time: 0.5
      value: {fileID: 21300000, guid: ab4d34c714557af4c87b7b4760d34222, type: 3}
    - time: 0.5833333
      value: {fileID: 21300000, guid: e721397e214da5048b10b8fe6d9f7b01, type: 3}
    - time: 0.6666667
      value: {fileID: 21300000, guid: 118de17a4db1306468b6c88d177cb57d, type: 3}
    - time: 0.75
      value: {fileID: 21300000, guid: e80768d525eae414dbd36b902637d505, type: 3}
    attribute: m_Sprite
    path: 
    classID: 212
    script: {fileID: 0}
  m_SampleRate: 12
  m_WrapMode: 0
  m_Bounds:
    m_Center: {x: 0, y: 0, z: 0}
    m_Extent: {x: 0, y: 0, z: 0}
  m_ClipBindingConstant:
    genericBindings:
    - serializedVersion: 2
      path: 0
      attribute: 0
      script: {fileID: 0}
      typeID: 212
      customType: 23
      isPPtrCurve: 1
    pptrCurveMapping:
    - {fileID: 21300000, guid: 6a4acee4f96bf3a45b011221a46b1c86, type: 3}
    - {fileID: 21300000, guid: 8ea08a1d6c8fce746bad807600d5accd, type: 3}
    - {fileID: 21300000, guid: 9ad5cdf8f8293d6428b1075d2a3f99b7, type: 3}
    - {fileID: 21300000, guid: 22db84646bbc1af4588f15c4f424146b, type: 3}
    - {fileID: 21300000, guid: 5feb139c740f41f448c9f9a5ae76cc02, type: 3}
    - {fileID: 21300000, guid: 80827b1b4a3ddd34f9082c8d4b4e44ee, type: 3}
    - {fileID: 21300000, guid: ab4d34c714557af4c87b7b4760d34222, type: 3}
    - {fileID: 21300000, guid: e721397e214da5048b10b8fe6d9f7b01, type: 3}
    - {fileID: 21300000, guid: 118de17a4db1306468b6c88d177cb57d, type: 3}
    - {fileID: 21300000, guid: e80768d525eae414dbd36b902637d505, type: 3}
  m_AnimationClipSettings:
    serializedVersion: 2
    m_AdditiveReferencePoseClip: {fileID: 0}
    m_AdditiveReferencePoseTime: 0
    m_StartTime: 0
    m_StopTime: 0.8333333
    m_OrientationOffsetY: 0
    m_Level: 0
    m_CycleOffset: 0
    m_HasAdditiveReferencePose: 0
    m_LoopTime: 0
    m_LoopBlend: 0
    m_LoopBlendOrientation: 0
    m_LoopBlendPositionY: 0
    m_LoopBlendPositionXZ: 0
    m_KeepOriginalOrientation: 0
    m_KeepOriginalPositionY: 1
    m_KeepOriginalPositionXZ: 0
    m_HeightFromFeet: 0
    m_Mirror: 0
  m_EditorCurves: []
  m_EulerEditorCurves: []
  m_HasGenericRootTransform: 0
  m_HasMotionFloatCurves: 0
  m_Events: []
