%YAML 1.1
%TAG !u! tag:unity3d.com,2011:
--- !u!74 &7400000
AnimationClip:
  m_ObjectHideFlags: 0
  m_CorrespondingSourceObject: {fileID: 0}
  m_PrefabInstance: {fileID: 0}
  m_PrefabAsset: {fileID: 0}
  m_Name: Propeller_Reverse
  serializedVersion: 6
  m_Legacy: 0
  m_Compressed: 0
  m_UseHighQualityCurve: 1
  m_RotationCurves: []
  m_CompressedRotationCurves: []
  m_EulerCurves: []
  m_PositionCurves: []
  m_ScaleCurves: []
  m_FloatCurves: []
  m_PPtrCurves:
  - curve:
    - time: 0
      value: {fileID: 21300000, guid: a68d301724aefa4488218604727d878e, type: 3}
    - time: 0.083333336
      value: {fileID: 21300000, guid: 33203089974dfb34c8dee72597dc4aa3, type: 3}
    - time: 0.16666667
      value: {fileID: 21300000, guid: 86b7aa3987035524693d455aa92b27e7, type: 3}
    - time: 0.25
      value: {fileID: 21300000, guid: 212ff8e0936e57c4cbae9192b2353d86, type: 3}
    - time: 0.33333334
      value: {fileID: 21300000, guid: 1acb93459a0791d4a82a2f9ae86f50ce, type: 3}
    - time: 0.41666666
      value: {fileID: 21300000, guid: 2ae24b67c1246b849894e7b3a3a19e6d, type: 3}
    - time: 0.5
      value: {fileID: 21300000, guid: 5bc041798344e4e4396825fb2654f689, type: 3}
    - time: 0.5833333
      value: {fileID: 21300000, guid: 23b1c47d927ad5d45ad6002f658dfe0c, type: 3}
    - time: 0.6666667
      value: {fileID: 21300000, guid: 7c4a1c39dfa6f474fbeb6d878ceab802, type: 3}
    attribute: m_Sprite
    path: 
    classID: 212
    script: {fileID: 0}
  m_SampleRate: 12
  m_WrapMode: 0
  m_Bounds:
    m_Center: {x: 0, y: 0, z: 0}
    m_Extent: {x: 0, y: 0, z: 0}
  m_ClipBindingConstant:
    genericBindings:
    - serializedVersion: 2
      path: 0
      attribute: 0
      script: {fileID: 0}
      typeID: 212
      customType: 23
      isPPtrCurve: 1
    pptrCurveMapping:
    - {fileID: 21300000, guid: a68d301724aefa4488218604727d878e, type: 3}
    - {fileID: 21300000, guid: 33203089974dfb34c8dee72597dc4aa3, type: 3}
    - {fileID: 21300000, guid: 86b7aa3987035524693d455aa92b27e7, type: 3}
    - {fileID: 21300000, guid: 212ff8e0936e57c4cbae9192b2353d86, type: 3}
    - {fileID: 21300000, guid: 1acb93459a0791d4a82a2f9ae86f50ce, type: 3}
    - {fileID: 21300000, guid: 2ae24b67c1246b849894e7b3a3a19e6d, type: 3}
    - {fileID: 21300000, guid: 5bc041798344e4e4396825fb2654f689, type: 3}
    - {fileID: 21300000, guid: 23b1c47d927ad5d45ad6002f658dfe0c, type: 3}
    - {fileID: 21300000, guid: 7c4a1c39dfa6f474fbeb6d878ceab802, type: 3}
  m_AnimationClipSettings:
    serializedVersion: 2
    m_AdditiveReferencePoseClip: {fileID: 0}
    m_AdditiveReferencePoseTime: 0
    m_StartTime: 0
    m_StopTime: 0.75
    m_OrientationOffsetY: 0
    m_Level: 0
    m_CycleOffset: 0
    m_HasAdditiveReferencePose: 0
    m_LoopTime: 1
    m_LoopBlend: 0
    m_LoopBlendOrientation: 0
    m_LoopBlendPositionY: 0
    m_LoopBlendPositionXZ: 0
    m_KeepOriginalOrientation: 0
    m_KeepOriginalPositionY: 1
    m_KeepOriginalPositionXZ: 0
    m_HeightFromFeet: 0
    m_Mirror: 0
  m_EditorCurves: []
  m_EulerEditorCurves: []
  m_HasGenericRootTransform: 0
  m_HasMotionFloatCurves: 0
  m_Events: []
