%YAML 1.1
%TAG !u! tag:unity3d.com,2011:
--- !u!74 &7400000
AnimationClip:
  m_ObjectHideFlags: 0
  m_CorrespondingSourceObject: {fileID: 0}
  m_PrefabInstance: {fileID: 0}
  m_PrefabAsset: {fileID: 0}
  m_Name: Create_Intro
  serializedVersion: 6
  m_Legacy: 0
  m_Compressed: 0
  m_UseHighQualityCurve: 1
  m_RotationCurves: []
  m_CompressedRotationCurves: []
  m_EulerCurves: []
  m_PositionCurves: []
  m_ScaleCurves: []
  m_FloatCurves: []
  m_PPtrCurves:
  - curve:
    - time: 0
      value: {fileID: 21300000, guid: 255de3feacdda094695a191206203c2d, type: 3}
    - time: 0.083333336
      value: {fileID: 21300000, guid: fef45e59b4f6cc748bdd6bbf97ce202e, type: 3}
    - time: 0.16666667
      value: {fileID: 21300000, guid: 4ce14a38d2dbec8419c6403806f3ffcd, type: 3}
    - time: 0.25
      value: {fileID: 21300000, guid: ec1d83ab10f2b4b4480481f5dead989a, type: 3}
    - time: 0.33333334
      value: {fileID: 21300000, guid: a91514e834f3d7446b4efc4e11624d31, type: 3}
    - time: 0.41666666
      value: {fileID: 21300000, guid: ed98d89b632a40842ad8e8d564aadfe7, type: 3}
    - time: 0.5
      value: {fileID: 21300000, guid: 4f3f138eaa8aa1c4ca1bb07afa934195, type: 3}
    - time: 0.5833333
      value: {fileID: 21300000, guid: 61e7806116b4fed4b9386c66e3c47df6, type: 3}
    - time: 0.6666667
      value: {fileID: 21300000, guid: 5fc6fd9507cd9d445a78853f9cdc2ea6, type: 3}
    - time: 0.75
      value: {fileID: 21300000, guid: 8278c21ad752bc040bdbbd1128a1c028, type: 3}
    attribute: m_Sprite
    path: 
    classID: 212
    script: {fileID: 0}
  m_SampleRate: 12
  m_WrapMode: 0
  m_Bounds:
    m_Center: {x: 0, y: 0, z: 0}
    m_Extent: {x: 0, y: 0, z: 0}
  m_ClipBindingConstant:
    genericBindings:
    - serializedVersion: 2
      path: 0
      attribute: 0
      script: {fileID: 0}
      typeID: 212
      customType: 23
      isPPtrCurve: 1
    pptrCurveMapping:
    - {fileID: 21300000, guid: 255de3feacdda094695a191206203c2d, type: 3}
    - {fileID: 21300000, guid: fef45e59b4f6cc748bdd6bbf97ce202e, type: 3}
    - {fileID: 21300000, guid: 4ce14a38d2dbec8419c6403806f3ffcd, type: 3}
    - {fileID: 21300000, guid: ec1d83ab10f2b4b4480481f5dead989a, type: 3}
    - {fileID: 21300000, guid: a91514e834f3d7446b4efc4e11624d31, type: 3}
    - {fileID: 21300000, guid: ed98d89b632a40842ad8e8d564aadfe7, type: 3}
    - {fileID: 21300000, guid: 4f3f138eaa8aa1c4ca1bb07afa934195, type: 3}
    - {fileID: 21300000, guid: 61e7806116b4fed4b9386c66e3c47df6, type: 3}
    - {fileID: 21300000, guid: 5fc6fd9507cd9d445a78853f9cdc2ea6, type: 3}
    - {fileID: 21300000, guid: 8278c21ad752bc040bdbbd1128a1c028, type: 3}
  m_AnimationClipSettings:
    serializedVersion: 2
    m_AdditiveReferencePoseClip: {fileID: 0}
    m_AdditiveReferencePoseTime: 0
    m_StartTime: 0
    m_StopTime: 0.8333333
    m_OrientationOffsetY: 0
    m_Level: 0
    m_CycleOffset: 0
    m_HasAdditiveReferencePose: 0
    m_LoopTime: 1
    m_LoopBlend: 0
    m_LoopBlendOrientation: 0
    m_LoopBlendPositionY: 0
    m_LoopBlendPositionXZ: 0
    m_KeepOriginalOrientation: 0
    m_KeepOriginalPositionY: 1
    m_KeepOriginalPositionXZ: 0
    m_HeightFromFeet: 0
    m_Mirror: 0
  m_EditorCurves: []
  m_EulerEditorCurves: []
  m_HasGenericRootTransform: 0
  m_HasMotionFloatCurves: 0
  m_Events: []
